…
The following shows some demos. Click the headings for references on all
available helpers in each category.

### [Data](https://loelschlaeger.de/oeli/reference/index.html#data)

The `hermann` data contains historical information on editions of the
[Hermannslauf](https://de.wikipedia.org/wiki/Hermannslauf), including
the date, temperature, and winning times for men and women:

``` r
hermann
#> # A tibble: 54 × 8
#>    edition  year date        temp winner_men        seconds_men winner_women  
#>      <dbl> <dbl> <date>     <dbl> <chr>                   <dbl> <chr>         
#>  1       1  1972 1972-04-16    NA Helmut Bode              6686 Lydia Günnewig
#>  2       2  1973 1973-04-29    14 Helmut Bode              6795 Irmhild Holste
#>  3       3  1974 1974-04-28    14 Achim Stober             6942 Liane Winter  
#>  4       4  1975 1975-04-27    11 Klaus-Dieter Holz        6720 Christine Ross
#>  5       5  1976 1976-04-25    11 Heribert Bulk            6453 Liane Winter  
#>  6       6  1977 1977-04-24     9 Jim Hodey                6503 Liane Winter  
#>  7       7  1978 1978-04-30    16 Michael Heine            6856 Liane Winter  
#>  8       8  1979 1979-04-29     7 Billy Cain               6587 Liane Winter  
#>  9       9  1980 1980-04-27     9 Dieter Lippe             6706 Liane Winter  
#> 10      10  1981 1981-04-26    16 Helmut Schmidt           6735 Rotraud Zinner
#> # ℹ 44 more rows
#> # ℹ 1 more variable: seconds_women <dbl>
```
…
